{
  "version": "14.0.0",
  "vulnerabilities": [
    {
      "id": "8b328fa84ed18e2177d49c04edb84a3ac93871271232c062414245c33a0ec9e9",
      "category": "secret_detection",
      "name": "Test for Custom Rulesets",
      "message": "Test for Custom Rulesets detected; please remove and revoke it if this is a leak.",
      "description": "Test for Custom Rulesets",
      "cve": "main.php:414bd95595331c3de0347cebaa017a193a2cc237abb33c2cd8dcf14bc1d78359:Test for Custom Rulesets",
      "severity": "Critical",
      "confidence": "Unknown",
      "raw_source_code_extract": "Custom Ruleset Test",
      "scanner": {
        "id": "gitleaks",
        "name": "Gitleaks"
      },
      "location": {
        "file": "main.php",
        "commit": {
          "date": "0001-01-01T00:00:00Z",
          "sha": "0000000"
        },
        "start_line": 14,
        "end_line": 14
      },
      "identifiers": [
        {
          "type": "gitleaks_rule_id",
          "name": "Gitleaks rule ID Test for Custom Rulesets",
          "value": "Test for Custom Rulesets"
        }
      ]
    }
  ],
  "remediations": [],
  "scan": {
    "scanner": {
      "id": "gitleaks",
      "name": "Gitleaks",
      "url": "https://github.com/zricethezav/gitleaks",
      "vendor": {
        "name": "GitLab"
      },
      "version": "v7.2.2"
    },
    "type": "secret_detection",
    "start_time": "2021-02-05T17:20:35",
    "end_time": "2021-02-05T17:20:35",
    "status": "success"
  }
}
